…
The scattering of red dots (not fully funded) doesnt appear to follow any particular pattern. The combination of these variables (number of borrowers per loan and number of tags) does not appear to be related to funding status. Therefore, they are unlikely to be useful predictors.

With these starting images, it seems like theres a chance that the request amount might help with prediction at the upper end of dollar amounts, but that other variables may not have predictive power when determining if a project is fully-funded. Lets see what the models show.

Funding by sector?

kiva_eda %>% group_by(fully_funded, sector) %>% tally() %>% arrange(sector)

## # A tibble: 30 x 3
## # Groups:   fully_funded [2]
##    fully_funded sector           n
##    <chr>        <chr>        <int>
##  1 No           Agriculture   2832
##  2 Yes          Agriculture  33270
##  3 No           Arts            48
##  4 Yes          Arts          2376
##  5 No           Clothing       636
##  6 Yes          Clothing      5908
##  7 No           Construction    72
##  8 Yes          Construction  1251
##  9 No           Education      156
## 10 Yes          Education     6036
## # ... with 20 more rows

What about as a percentage of the sector?

kiva_eda %>% group_by(sector) %>% mutate(sector_count = n()) %>% 
  ungroup() %>%
  group_by(fully_funded, sector, sector_count) %>% tally() %>% 
  mutate(sector_pct = round(n/sector_count*100)) %>% select(fully_funded, sector, sector_pct) %>%
  arrange(sector)

## # A tibble: 30 x 3
## # Groups:   fully_funded, sector [30]
##    fully_funded sector       sector_pct
##    <chr>        <chr>             <dbl>
##  1 No           Agriculture           8
##  2 Yes          Agriculture          92
##  3 No           Arts                  2
##  4 Yes          Arts                 98
##  5 No           Clothing             10
##  6 Yes          Clothing             90
##  7 No           Construction          5
##  8 Yes          Construction         95
##  9 No           Education             3
## 10 Yes          Education            97
## # ... with 20 more rows
…
